%YAML 1.1
%TAG !u! tag:unity3d.com,2011:
--- !u!114 &11400000
MonoBehaviour:
  m_ObjectHideFlags: 0
  m_CorrespondingSourceObject: {fileID: 0}
  m_PrefabInternal: {fileID: 0}
  m_GameObject: {fileID: 0}
  m_Enabled: 1
  m_EditorHideFlags: 0
  m_Script: {fileID: 11500000, guid: 2d5751a2c961df945a34295ccf5e576d, type: 3}
  m_Name: Tree Cluster 3 Prefab Brush
  m_EditorClassIdentifier: 
  m_Prefabs:
  - {fileID: 1235354944129748, guid: 08bb93433bdf62f4bbca07640b9d6bce, type: 2}
  m_PerlinScale: 0.5
  m_Z: 0
